Loess smoothing animation
…
library(tidyverse)
library(broom)
library(gganimate)
library(dplR)

Data

Ill grab a series out of the classic Schulman doug fir data. Study co021 on the ITRDB which is onboard in dplR. Ill make that a tibble which is a gussied up data.frame for those not in the know.

data(co021)
core1 <- tibble(yr = time(co021), mm = co021$`641114`)
core1 <- core1 %>% drop_na()
core1

## # A tibble: 694 x 2
##       yr    mm
##    <dbl> <dbl>
##  1  1270 1.48 
##  2  1271 2.33 
##  3  1272 1.32 
##  4  1273 0.67 
##  5  1274 0.82 
##  6  1275 1.22 
##  7  1276 0.52 
##  8  1277 0.570
##  9  1278 0.4  
## 10  1279 0.65 
## #  with 684 more rows
…
Remove all rows that are further away than the span we selected (10%). This shrinks the data down to a more manageable size here and will be the number of points used in each local regression.

Calculate a weight for each local regression using tricubic weighting. See ?loess for details.

loessByHand <- core1 %>%
  crossing(centerYear = core1$yr) %>% group_by(centerYear) %>%
  mutate(distToYear = abs(yr - centerYear)) %>%
  filter(rank(distToYear) / n() <= 0.1) %>%
  mutate(localWeight = (1 - (distToYear / max(distToYear)) ^ 3) ^ 3)

Lets a get a feel for what loessByHand looks like by selecting a year.

loessByHand %>% filter(centerYear == 1500)

## # A tibble: 69 x 5
## # Groups:   centerYear [1]
##       yr    mm centerYear distToYear localWeight
##    <dbl> <dbl>      <dbl>      <dbl>       <dbl>
##  1  1466  0.3        1500         34    0       
##  2  1467  0.34       1500         33    0.000629
##  3  1468  0.18       1500         32    0.00460 
##  4  1469  0.26       1500         31    0.0142  
##  5  1470  0.26       1500         30    0.0307  
##  6  1471  0.11       1500         29    0.0546  
##  7  1472  0.15       1500         28    0.0860  
##  8  1473  0.06       1500         27    0.124   
##  9  1474  0.22       1500         26    0.169   
## 10  1475  0.1        1500         25    0.219   
## #  with 59 more rows
…
